…
    ## Warning: package 'dplyr' was built under R version 3.5.1

    ## ── Conflicts ────────────────────────────── tidyverse_conflicts() ──
    ## ✖ dplyr::filter() masks stats::filter()
    ## ✖ dplyr::lag()    masks stats::lag()

``` r
library(rcfss)
library(knitr)
# load the data
data("gun_deaths")
gun_deaths 
```

    ## # A tibble: 100,798 x 10
    ##       id  year month intent       police sex     age race  place education
    ##    <int> <int> <dbl> <chr>         <int> <chr> <int> <chr> <chr> <fct>    
    ##  1     1  2012     1 Suicide           0 M        34 Asia… Home  BA+      
    ##  2     2  2012     1 Suicide           0 F        21 White Stre… Some col…
    ##  3     3  2012     1 Suicide           0 M        60 White Othe… BA+      
    ##  4     4  2012     2 Suicide           0 M        64 White Home  BA+      
    ##  5     5  2012     2 Suicide           0 M        31 White Othe… HS/GED   
    ##  6     6  2012     2 Suicide           0 M        17 Nati… Home  Less tha…
    ##  7     7  2012     2 Undetermined      0 M        48 White Home  HS/GED   
    ##  8     8  2012     3 Suicide           0 M        41 Nati… Home  HS/GED   
    ##  9     9  2012     2 Accidental        0 M        50 White Othe… Some col…
    ## 10    10  2012     2 Suicide           0 M        NA Black Home  <NA>     
    ## # ... with 100,788 more rows
…
