…
``` r
library(knitr)        # load functions for formatting tables

# get data from rcfss package
# install latest version if not already installed
# devtools::install_github("uc-cfss/rcfss")
library(rcfss)

# load the data
data("gun_deaths")
gun_deaths
```

    ## # A tibble: 100,798 x 10
    ##       id  year month intent  police sex     age race      place   education
    ##    <int> <int> <dbl> <chr>    <int> <chr> <int> <chr>     <chr>   <fct>    
    ##  1     1  2012     1 Suicide      0 M        34 Asian/Pa… Home    BA+      
    ##  2     2  2012     1 Suicide      0 F        21 White     Street  Some col…
    ##  3     3  2012     1 Suicide      0 M        60 White     Other … BA+      
    ##  4     4  2012     2 Suicide      0 M        64 White     Home    BA+      
    ##  5     5  2012     2 Suicide      0 M        31 White     Other … HS/GED   
    ##  6     6  2012     2 Suicide      0 M        17 Native A… Home    Less tha…
    ##  7     7  2012     2 Undete…      0 M        48 White     Home    HS/GED   
    ##  8     8  2012     3 Suicide      0 M        41 Native A… Home    HS/GED   
    ##  9     9  2012     2 Accide…      0 M        50 White     Other … Some col…
    ## 10    10  2012     2 Suicide      0 M        NA Black     Home    <NA>     
    ## # … with 100,788 more rows
…
Are police-involved gun deaths significantly different from other gun deaths? Assess the relationship between police involvement and age, police involvement and race, and the intersection of all three variables.
-------------------------------------------------------------------------------------------------------------------------------------------------------------------------------------------------------------------

    ## # A tibble: 172 x 3
    ##    police            age     n
    ##    <fct>           <int> <int>
    ##  1 Police involved    12     1
    ##  2 Police involved    13     1
    ##  3 Police involved    14     1
    ##  4 Police involved    15     5
    ##  5 Police involved    16     7
    ##  6 Police involved    17    13
    ##  7 Police involved    18    24
    ##  8 Police involved    19    28
    ##  9 Police involved    20    34
    ## 10 Police involved    21    43
    ## # … with 162 more rows
…
    ## # A tibble: 671 x 4
    ##    police          race                     age     n
    ##    <fct>           <chr>                  <int> <int>
    ##  1 Police involved Asian/Pacific Islander    19     1
    ##  2 Police involved Asian/Pacific Islander    20     1
    ##  3 Police involved Asian/Pacific Islander    21     3
    ##  4 Police involved Asian/Pacific Islander    22     4
    ##  5 Police involved Asian/Pacific Islander    25     2
    ##  6 Police involved Asian/Pacific Islander    27     3
    ##  7 Police involved Asian/Pacific Islander    29     1
    ##  8 Police involved Asian/Pacific Islander    31     1
    ##  9 Police involved Asian/Pacific Islander    32     1
    ## 10 Police involved Asian/Pacific Islander    34     2
    ## # … with 661 more rows
…
